INDEX VERSION 1.131+C:\Users\deepak.jaiswal\Workspace\.metadata\.plugins\org.eclipse.jdt.core
876316652.index
482355102.index
2837621723.index
3351864973.index
25444053.index
2183460493.index
1667502074.index
2883849197.index
71026656.index
1818320769.index
3329190858.index
833030484.index
2940924977.index
2785036918.index
869927575.index
1234069157.index
2520629882.index
809567266.index
2973411201.index
2565893237.index
1887425915.index
457608187.index
787622886.index
3998638026.index
1611132708.index
1964357055.index
1214980740.index
4048667123.index
1223479479.index
1893401526.index
672387152.index
2434274435.index
3541718475.index
3150299499.index
2138630680.index
1320101385.index
517197303.index
304725467.index
